vacc_tests_card
…
ℹ Use `spec()` to retrieve the full column specification for this data.
ℹ Specify the column types or set `show_col_types = FALSE` to quiet this message.
── Attaching core tidyverse packages ──────────────────────── tidyverse 2.0.0 ──
✔ dplyr     1.1.4     ✔ purrr     1.0.4
✔ forcats   1.0.0     ✔ stringr   1.5.1
✔ ggplot2   3.5.2     ✔ tibble    3.2.1
✔ lubridate 1.9.4     ✔ tidyr     1.3.1
── Conflicts ────────────────────────────────────────── tidyverse_conflicts() ──
✖ dplyr::filter() masks stats::filter()
✖ dplyr::lag()    masks stats::lag()
ℹ Use the conflicted package (<http://conflicted.r-lib.org/>) to force all conflicts to become errors

# A tibble: 1,689 × 81
   ph3_redcap_id ra_num ph3_consent  unique caregiver_sex relationship education
           <dbl>  <dbl>       <dbl>   <dbl>         <dbl>        <dbl>     <dbl>
 1             1      6           1 6012503             0            0         2
 2             2      6           1 6102509             0            0         1
 3             3      6           1 6022505             0            0         1
 4             4      6           1 6032505             0            0         2
 5             5      6           1 6042506             0            0         0
 6             6      6           1 6052501             0            0         2
 7             7      6           1 6062512             0            0         2
 8             8      6           1 6072505             0            0         2
 9             9      6           1 6082507             0            2         1
10            10      6           1 6092504             0            0         1
# ℹ 1,679 more rows
# ℹ 74 more variables: marital <dbl>, children <dbl>, birthplace <dbl>,
#   oldest_child <dbl>, vacc_more <dbl>, vacc_healthykids <dbl>,
#   vacc_harmgood <dbl>, vacc_natimmune <dbl>, vacc_parentchoice <dbl>,
#   vacc_2for1 <dbl>, vacc_severe <dbl>, vacc_refuse <dbl>, vacc_ses <dbl>,
#   vacc_guidelines <dbl>, exp_policy <dbl>, exp_safe <dbl>, exp_protect <dbl>,
#   exp_self <dbl>, exp_seen <dbl>, exp_delay <dbl>, exp_defer <dbl>, …
…
